acls:
  enable: false
  modify_groups: []
  modify_users: []
  ui_users: []
  view_groups: []
  view_users: []
file_systems: []
master:
  env:
    SPARK_CONF_DIR: /etc/spark3/conf
    SPARK_HOME: /usr/lib/spark3
  files:
    airflow.keytab:
      size: 0
      source: file:///pytest/path/to/airflow.keytab
      timestamp: 0
      type: FILE
      visibility: APPLICATION
  log_level: INFO
  resources:
    fpgas: 0
    gpus: 0
    memory: 3815
    vcores: 2
  script: spark3-submit --driver-cores 2 --conf spark.executorEnv.SPARK_HOME=/usr/lib/spark3
    --conf spark.executorEnv.SPARK_CONF_DIR=/etc/spark3/conf --master yarn --conf
    spark.dynamicAllocation.maxExecutors=128 --conf spark.yarn.appMasterEnv.SPARK_CONF_DIR=/etc/spark3/conf
    --conf spark.yarn.appMasterEnv.SPARK_HOME=/usr/lib/spark3 --executor-cores 2 --executor-memory
    4G --driver-memory 4G --keytab airflow.keytab --principal airflow --name wikidata_coeditors_metrics_to_graphite_monthly__generate_and_send_coeditormetric_to_graphite__20220701
    --class org.wikimedia.analytics.refinery.job.HiveToGraphite --queue production
    --deploy-mode client hdfs:///wmf/cache/artifacts/airflow/analytics/refinery-job-0.2.1-shaded.jar
    --metric_prefix daily.monthly.wikidata.coeditors --graphite_host graphite-in.eqiad.wmnet
    --graphite_port 2003 -f hdfs://analytics-hadoop/wmf/refinery/current/hql/wikidata/coeditors_metrics.hql
    -d mw_project_namespace_map_table=wmf_raw.mediawiki_project_namespace_map -d mw_history_table=wmf.mediawiki_history
    -d snapshot=2022-06
max_attempts: 1
name: Airflow SparkSkeinSubmitHook skein launcher wikidata_coeditors_metrics_to_graphite_monthly__generate_and_send_coeditormetric_to_graphite__20220701
node_label: ''
queue: production
services: {}
tags: []
user: ''
