acls:
  enable: false
  modify_groups: []
  modify_users: []
  ui_users: []
  view_groups: []
  view_users: []
file_systems: []
master:
  env:
    SPARK_CONF_DIR: /etc/spark3/conf
    SPARK_HOME: /usr/lib/spark3
  files:
    airflow.keytab:
      size: 0
      source: file:///pytest/path/to/airflow.keytab
      timestamp: 0
      type: FILE
      visibility: APPLICATION
  log_level: INFO
  resources:
    fpgas: 0
    gpus: 0
    memory: 30518
    vcores: 2
  script: spark3-submit --driver-cores 2 --conf spark.executorEnv.SPARK_HOME=/usr/lib/spark3
    --conf spark.executorEnv.SPARK_CONF_DIR=/etc/spark3/conf --master yarn --conf
    spark.dynamicAllocation.maxExecutors=90 --conf spark.executor.memoryOverhead=8192
    --conf spark.yarn.appMasterEnv.SPARK_CONF_DIR=/etc/spark3/conf --conf spark.yarn.appMasterEnv.SPARK_HOME=/usr/lib/spark3
    --executor-cores 3 --executor-memory 32G --driver-memory 32G --keytab airflow.keytab
    --principal airflow --name mediawiki_history_denormalize__denormalize_history__20230501
    --class org.wikimedia.analytics.refinery.job.mediawikihistory.MediawikiHistoryRunner
    --queue production --deploy-mode client hdfs:///wmf/cache/artifacts/airflow/analytics/refinery-job-0.2.21-shaded.jar
    --snapshot 2023-04 --mediawiki-base-path hdfs://analytics-hadoop/wmf/data/raw/mediawiki
    --mediawiki-private-base-path hdfs://analytics-hadoop/wmf/data/raw/mediawiki_private
    --output-base-path hdfs://analytics-hadoop/wmf/data/wmf/mediawiki --temporary-path
    hdfs://analytics-hadoop/tmp/mediawiki/history/checkpoints --base-num-partitions
    64 --no-stats
max_attempts: 1
name: Airflow SparkSkeinSubmitHook skein launcher mediawiki_history_denormalize__denormalize_history__20230501
node_label: ''
queue: production
services: {}
tags: []
user: ''
