acls:
  enable: false
  modify_groups: []
  modify_users: []
  ui_users: []
  view_groups: []
  view_users: []
file_systems: []
master:
  env: {}
  files:
    airflow.keytab:
      size: 0
      source: file:///pytest/path/to/airflow.keytab
      timestamp: 0
      type: FILE
      visibility: APPLICATION
  log_level: INFO
  resources:
    fpgas: 0
    gpus: 0
    memory: 1024
    vcores: 1
  script: kinit -k -t airflow.keytab airflow && hdfs dfs -rm -r -skipTrash hdfs://analytics-hadoop/wmf/tmp/analytics/dumps/dumps_merge_backfill_to_wikitext_raw/20230801
max_attempts: 1
name: dumps_merge_backfill_to_wikitext_raw__remove_intermediate_files__20230901
node_label: ''
queue: production
services: {}
tags: []
user: ''
